<?xml version="1.0" standalone="no"?>
<!DOCTYPE svg PUBLIC "-//W3C//DTD SVG 20010904//EN"
 "http://www.w3.org/TR/2001/REC-SVG-20010904/DTD/svg10.dtd">
<svg version="1.0" xmlns="http://www.w3.org/2000/svg"
 width="237.000000pt" height="158.000000pt" viewBox="0 0 237.000000 158.000000"
 preserveAspectRatio="xMidYMid meet">
<metadata>
Created by potrace 1.13, written by Peter Selinger 2001-2015
</metadata>
<g transform="translate(0.000000,158.000000) scale(0.100000,-0.100000)"
fill="#000000" stroke="none">
<path d="M256 1418 c572 -587 909 -928 923 -933 16 -7 42 19 812 808 l281 287
-1087 0 -1088 0 159 -162z"/>
<path d="M0 795 l0 -640 126 125 c69 69 210 213 313 320 l188 195 -313 319
-314 320 0 -639z"/>
<path d="M2053 1111 l-312 -318 314 -319 314 -319 0 638 c1 350 0 637 -1 637
-2 0 -143 -144 -315 -319z"/>
<path d="M420 337 l-325 -332 548 -3 c302 -1 792 -1 1090 0 l542 3 -325 332
-325 331 -160 -158 c-88 -87 -174 -165 -192 -174 -41 -21 -135 -21 -176 0 -18
9 -104 87 -192 174 l-160 158 -325 -331z"/>
</g>
</svg>
